…
## Pregnant women under 18 with high risk level

    ltage18 <- subset(MAT, Age<18) 
    ltage18

    ## # A tibble: 193 x 7
    ##      Age SystolicBP DiastolicBP    BS BodyTemp
    ##    <dbl>      <dbl>       <dbl> <dbl>    <dbl>
    ##  1    15        120          80  7.01       98
    ##  2    10         70          50  6.9        98
    ##  3    16        100          70  7.2        98
    ##  4    12         95          60  6.1       102
    ##  5    15         76          49  7.5        98
    ##  6    15        120          80  7          98
    ##  7    15         76          49  6.4        98
    ##  8    15        120          80  7.2        98
    ##  9    15         80          60  7          98
    ## 10    12         95          60  7.2        98
    ## # ... with 183 more rows, and 2 more variables:
    ## #   HeartRate <dbl>, RiskLevel <chr>
…
